…
7. [Dipodomys merriami](https://en.wikipedia.org/wiki/Merriam's_kangaroo_rat) is the most frequently sampled animal in the study. How have the number of observations of this species changed over the years included in the study?

```r
deserts %>% 
  filter(species_id=="DM") %>% 
  group_by(year) %>% 
  summarize(n_samples=n())
```

```
## # A tibble: 26 × 2
##     year n_samples
##    <dbl>     <int>
##  1  1977       264
##  2  1978       389
##  3  1979       209
##  4  1980       493
##  5  1981       559
##  6  1982       609
##  7  1983       528
##  8  1984       396
##  9  1985       667
## 10  1986       406
## # … with 16 more rows
```
…
9. Which two species have, on average, the highest weight? Once you have identified them, make a new column that is a ratio of `weight` to `hindfoot_length`. Make a plot that shows the range of this new ratio and fill by sex.

```r
deserts %>% 
  filter(weight!="NA") %>% 
  group_by(species_id) %>% 
  summarize(mean_weight=mean(weight)) %>% 
  arrange(desc(mean_weight))
```

```
## # A tibble: 25 × 2
##    species_id mean_weight
##    <chr>            <dbl>
##  1 NL               159. 
##  2 DS               120. 
##  3 SS                93.5
##  4 SH                73.1
##  5 SF                58.9
##  6 SO                55.4
##  7 DO                48.9
##  8 DM                43.2
##  9 PB                31.7
## 10 OL                31.6
## # … with 15 more rows
```


```r
deserts %>% 
  filter(species_id=="NL" | species_id=="DS") %>% 
  filter(weight!="NA" & hindfoot_length!="NA") %>% 
  mutate(ratio=weight/hindfoot_length) %>% 
  select(species_id, sex, weight, hindfoot_length, ratio)
```

```
## # A tibble: 3,072 × 5
##    species_id sex   weight hindfoot_length ratio
##    <chr>      <chr>  <dbl>           <dbl> <dbl>
##  1 DS         F        117              50  2.34
##  2 DS         F        121              51  2.37
##  3 DS         M        115              51  2.25
##  4 DS         F        120              48  2.5 
##  5 DS         F        118              48  2.46
##  6 DS         F        126              52  2.42
##  7 DS         M        132              50  2.64
##  8 DS         F        122              53  2.30
##  9 DS         F        107              48  2.23
## 10 DS         F        115              50  2.3 
## # … with 3,062 more rows
```
…
