…
5. (2 points) How many male and female elephants are represented in the data?

```r
elephants%>% 
  filter(sex== "M") 
```

```
## # A tibble: 138 × 3
##      age height sex  
##    <dbl>  <dbl> <fct>
##  1   1.4   120  M    
##  2  17.5   227  M    
##  3  12.8   235  M    
##  4  11.2   210  M    
##  5  12.7   220  M    
##  6  12.7   189  M    
##  7  12.2   225  M    
##  8  12.2   204  M    
##  9  28.2   266. M    
## 10  11.7   233  M    
## # … with 128 more rows
```
…
